[
    {
        "notificationType": "Maintenance request",
        "notificationCode": "M1",
        "category": "Maintenance Notification"
    },
    {
        "notificationType": "Malfunction report",
        "notificationCode": "M2",
        "category": "Maintenance notification"
    },
    {
        "notificationType": "Activity report",
        "notificationCode": "M3",
        "category": "Maintenance notification"
    },
    {
        "notificationType": "Problem notification",
        "notificationCode": "S1",
        "category": "Service notification"
    },
    {
        "notificationType": "Service request",
        "notificationCode": "S2",
        "category": "Service notification"
    },
    {
        "notificationType": "Activity report",
        "notificationCode": "S3",
        "category": "Service notification"
    },
    {
        "notificationType": "Customer complaint",
        "notificationCode": "Q1",
        "category": "Quality notification"
    },
    {
        "notificationType": "Complaint against vendor",
        "notificationCode": "Q2",
        "category": "Quality notification"
    },
    {
        "notificationType": "Internal problem notification",
        "notificationCode": "Q3",
        "category": "Quality notification"
    },
    {
        "notificationType": "Feedback notification",
        "notificationCode": "$$",
        "category": "Quality notification"
    },
    {
        "notificationType": "Claim (internal)",
        "notificationCode": "C1",
        "category": "Claim"
    },
    {
        "notificationType": "Claim (external)",
        "notificationCode": "C2",
        "category": "Claim"
    },
    {
        "notificationType": "General notification",
        "notificationCode": "G0",
        "category": "General notification"
    }
]